<?xml version="1.0" ?>
<robot name="rosrider" xmlns:xacro="http://ros.org/wiki/xacro">

  <xacro:include filename="$(find rosrider_description)/urdf/rosrider5.gazebo.xacro"/>

  <link name="base_footprint"/>

  <joint name="base_joint" type="fixed">
    <parent link="base_footprint"/>
    <child link="base_link"/>
    <origin xyz="0.0 0.0 0.03" rpy="0 0 0"/>
  </joint>

  <link name="base_link">
    <visual>
      <origin xyz="0 0 0.005" rpy="0 0 0"/>
      <geometry>
        <mesh filename="package://rosrider_description/meshes/autorider.dae" scale="0.001 0.001 0.001"/>
      </geometry>
    </visual>
    <!--collision>
      <origin xyz="-0.0215 0 0.021" rpy="0 0 0"/>
      <geometry>
        <box size="0.1825 0.1136 0.032"/>
      </geometry>
    </collision-->
    <collision>
      <origin xyz="0 0 0.005" rpy="0 0 0"/>
      <geometry>
        <mesh filename="package://rosrider_description/meshes/rosrider_coll.stl" scale="0.001 0.001 0.001"/>
      </geometry>
    </collision>
    <inertial>
      <origin xyz="0 0 0" rpy="0 0 0"/>
      <mass value="8e-01"/>
      <inertia ixx="2.2e-03" ixy="-1.2e-05" ixz="3.5e-05"
               iyy="2.1e-03" iyz="-5.0e-06"
               izz="2.0e-03" />
    </inertial>
  </link>

  <joint name="wheel_left_joint" type="continuous">
    <parent link="base_link"/>
    <child link="wheel_left_link"/>
    <origin xyz="0.0 0.05 0.0" rpy="-1.570796 0 0"/>
    <axis xyz="0 0 1"/>
  </joint>

  <link name="wheel_left_link">
    <visual>
      <origin xyz="0 0 0" rpy="1.570796 0 0"/>
      <geometry>
        <mesh filename="package://rosrider_description/meshes/wheel_left.dae" scale="0.001 0.001 0.001"/>
      </geometry>
    </visual>
    <collision>
      <origin xyz="0 0 0" rpy="0 0 0"/>
      <geometry>
        <cylinder length="0.01" radius="0.03"/>
      </geometry>
    </collision>
    <inertial>
      <mass value="1.2e-02" />
      <inertia ixx="1.1e-05" ixy="-4.2e-11" ixz="-5.9e-09"
               iyy="1.1e-05" iyz="-1.4e-11"
               izz="2.0e-05" />
    </inertial>
  </link>

  <joint name="wheel_right_joint" type="continuous">
    <parent link="base_link"/>
    <child link="wheel_right_link"/>
    <origin xyz="0.0 -0.05 0.0" rpy="-1.570796 0 0"/>
    <axis xyz="0 0 1"/>
  </joint>

  <link name="wheel_right_link">
    <visual>
      <origin xyz="0 0 0" rpy="1.570796 0 0"/>
      <geometry>
        <mesh filename="package://rosrider_description/meshes/wheel_right.dae" scale="0.001 0.001 0.001"/>
      </geometry>
    </visual>
    <collision>
      <origin xyz="0 0 0" rpy="0 0 0"/>
      <geometry>
        <cylinder length="0.01" radius="0.03"/>
      </geometry>
    </collision>
    <inertial>
      <mass value="1.2e-02" />
      <inertia ixx="1.1e-05" ixy="-4.2e-11" ixz="-5.9e-09"
               iyy="1.1e-05" iyz="-1.4e-11"
               izz="2.0e-05" />
    </inertial>
  </link>

  <joint name="caster_back_joint" type="fixed">
    <parent link="base_link"/>
    <child link="caster_back_link"/>
    <origin xyz="-0.09 0 -0.020495" rpy="0 0 0"/>
  </joint>

  <link name="caster_back_link">
    <visual>
      <geometry>
        <sphere radius="0.0095"/>
      </geometry>
    </visual>
    <collision>
      <origin xyz="0 0 0" rpy="0 0 0"/>
      <geometry>
        <sphere radius="0.0095"/>
      </geometry>
    </collision>
    <inertial>
      <origin xyz="0 0 0" />
      <mass value="5e-02" />
      <inertia ixx="0.001" ixy="0.0" ixz="0.0"
               iyy="0.001" iyz="0.0"
               izz="0.001" />
    </inertial>
  </link>

  <joint name="camera_joint" type="fixed">
    <origin xyz="0.05893 0 0.06577" rpy="0 0.3054 0"/>
    <parent link="base_link"/>
    <child link="camera_link"/>
  </joint>

  <link name="camera_link">
    <collision>
      <origin xyz="0.002 0 -0.011" rpy="0 0 0"/>
      <geometry>
        <box size="0.018 0.028 0.044"/>
      </geometry>
    </collision>
  </link>

  <joint name="camera_rgb_joint" type="fixed">
    <origin xyz="0 0 0" rpy="0 0 0"/>
    <parent link="camera_link"/>
    <child link="camera_rgb_frame"/>
  </joint>
  <link name="camera_rgb_frame"/>

  <joint name="camera_rgb_optical_joint" type="fixed">
    <origin xyz="0 0 0" rpy="-1.570796 0 -1.570796"/>
    <parent link="camera_rgb_frame"/>
    <child link="camera_rgb_optical_frame"/>
  </joint>
  <link name="camera_rgb_optical_frame"/>

  <!-- <joint name="sensor_front_joint" type="fixed">
      <origin xyz="0.05893 -0.02 0.03577" rpy="0 0 0"/>
      <parent link="base_link"/>
      <child link="sensor_front_link"/>
  </joint>
  <link name="sensor_front_link"/> -->
  <joint name="sensor_right_joint" type="fixed">
      <origin xyz="0.05893 -0.04 0.03577" rpy="0 0 0.12"/>
      <parent link="base_link"/>
      <child link="sensor_right_link"/>
  </joint>
  <link name="sensor_right_link"/>

  <joint name="sensor_left_joint" type="fixed">
      <origin xyz="0.05893 0.04 0.03577" rpy="0 0 -0.12"/>
      <parent link="base_link"/>
      <child link="sensor_left_link"/>
  </joint>
  <link name="sensor_left_link"/>

</robot>
